{
	"info": {
		"_postman_id": "fdb6ca74-87c7-459b-93f6-ce50c87e515d",
		"name": "prueba",
		"schema": "https://schema.getpostman.com/json/collection/v2.1.0/collection.json"
	},
	"item": [
		{
			"name": "getfiles",
			"request": {
				"method": "POST",
				"header": [],
				"body": {
					"mode": "raw",
					"raw": "{\n    \"id\":1,\n  \"rif\":\"1231313\",\n  \"razon_social\":\"dadadad\",\n  \"ubicacion\":\"dadadada\",\n  \"comentarios\":\"dadadada\"  \n}",
					"options": {
						"raw": {
							"language": "json"
						}
					}
				},
				"url": {
					"raw": "localhost:8081/account/restaurante",
					"host": [
						"localhost"
					],
					"port": "8081",
					"path": [
						"account",
						"restaurante"
					]
				}
			},
			"response": []
		},
		{
			"name": "http://localhost:8081/account/login",
			"request": {
				"auth": {
					"type": "bearer",
					"bearer": [
						{
							"key": "token",
							"value": "YWxiZXIxMjM0QGdtYWlsLmNvbToxMjM0",
							"type": "string"
						}
					]
				},
				"method": "POST",
				"header": [],
				"url": {
					"raw": "http://localhost:8081/account/login",
					"protocol": "http",
					"host": [
						"localhost"
					],
					"port": "8081",
					"path": [
						"account",
						"login"
					]
				}
			},
			"response": []
		},
		{
			"name": "restauranteUpdate",
			"request": {
				"method": "PUT",
				"header": [],
				"body": {
					"mode": "raw",
					"raw": "{\n    \"id\":1,\n  \"rif\":\"1231313\",\n  \"razon_social\":\"RESTAURANTE PRUEBA\",\n  \"ubicacion\":\"dadadada\",\n  \"comentarios\":\"dadadada\"  \n}",
					"options": {
						"raw": {
							"language": "json"
						}
					}
				},
				"url": {
					"raw": "localhost:8081/account/restaurante",
					"host": [
						"localhost"
					],
					"port": "8081",
					"path": [
						"account",
						"restaurante"
					]
				}
			},
			"response": []
		},
		{
			"name": "listadoRestaurante",
			"request": {
				"method": "GET",
				"header": [],
				"url": {
					"raw": ""
				}
			},
			"response": []
		},
		{
			"name": "registrarRestaurante",
			"request": {
				"method": "POST",
				"header": [],
				"body": {
					"mode": "raw",
					"raw": "{\n    \"id\":2,\n  \"rif\":\"1231313\",\n  \"razon_social\":\"RESTAURANTE PRUEBA\",\n  \"ubicacion\":\"dadadada\",\n  \"comentarios\":\"dadadada\"  \n}",
					"options": {
						"raw": {
							"language": "json"
						}
					}
				},
				"url": {
					"raw": "localhost:8081/account/restaurante",
					"host": [
						"localhost"
					],
					"port": "8081",
					"path": [
						"account",
						"restaurante"
					]
				}
			},
			"response": []
		},
		{
			"name": "Listado de Personas",
			"request": {
				"method": "GET",
				"header": [],
				"url": {
					"raw": "localhost:8081/account/personas",
					"host": [
						"localhost"
					],
					"port": "8081",
					"path": [
						"account",
						"personas"
					]
				}
			},
			"response": []
		},
		{
			"name": "http://localhost:8081/account/detalle/restaurante/?id=2",
			"request": {
				"method": "GET",
				"header": [],
				"url": {
					"raw": "http://localhost:8081/account/restaurante/?id=2",
					"protocol": "http",
					"host": [
						"localhost"
					],
					"port": "8081",
					"path": [
						"account",
						"restaurante",
						""
					],
					"query": [
						{
							"key": "id",
							"value": "2"
						}
					]
				}
			},
			"response": []
		}
	]
}